[
	{
		"list": [
			[
				"Уход за одеждой",
				"Стиральные машины",
				"Сушильные машины",
				"Паровые шкафы для одежды",
				"Гладильные системы",
				"Парогенераторы"
			],
			[
				"Комфорт дома",
				"Мойки",
				"Смесители",
				"Измельчители",
				"Пылесосы",
				"Весы",
				"Обогреватели",
				"Утюги",
				"Фены",
				"Массажеры и спорт.инвентарь",
				"Аксессуары"
			]
		]
	},
	{
		"list": [
			[
				"Оснащение кухни",
				"Холодильники",
				"Варочные панели",
				"Духовые шкафы",
				"Варочные центры",
				"Микроволновые печи",
				"Пароварки",
				"Посудомоечные машины",
				"Кофемашины",
				"Вытяжки",
				"Подогреватели",
				"Комби-панели",
				"Фритюрницы",
				"Грили",
				"Вакуумные упаковщики"
			],
			[
				"Печи",
				"Барбекю",
				"Дровяные печи"
			]
		]
	},
	{
		"list": [
			[
				"Кухонные помощники",
				"Блендеры",
				"Чайники",
				"Миксеры",
				"Тостеры",
				"Вафельницы",
				"Кухонные комбайны",
				"Соковыжималки",
				"Кофемолки",
				"Мультиварки",
				"Мясорубки",
				"Посуда"
			],
			[
				"Вино и сигары",
				"Винные шкафы",
				"Хьюмидоры"
			],
			[
				"Кухни Hausdorf",
				"Кухни Hausdorf",
				"Кухни Kuchenberg",
				"Еще..."
			]
		]
	},
	{
		"list": [
			[
				"Для мягкого климата",
				"Вентиляторы",
				"Очистители воздуха",
				"Увлажнители воздуха"
			],
			[
				"Телевизоры и акустика",
				"Телевизоры",
				"Акустические системы",
				"Беспроводные акустические системы",
				"Наушники",
				"Аксессуары и принадлежности"
			],
			[
				"Для профессионалов",
				"Печи",
				"Посудомоечные машины",
				"Стаканомоечные машины",
				"Холодильное оборудование",
				"Ледогенераторы",
				"Аксессуары"
			]
		]
	}
]
