<?xml version="1.0" encoding="UTF-8"?>
<svg width="52px" height="32px" viewBox="0 0 52 32" version="1.1" xmlns="http://www.w3.org/2000/svg" xmlns:xlink="http://www.w3.org/1999/xlink">
    <!-- Generator: Sketch 52 (66869) - http://www.bohemiancoding.com/sketch -->
    <title>catalog-item__buy</title>
    <desc>Created with Sketch.</desc>
    <defs>
        <linearGradient x1="50.780121%" y1="99.219879%" x2="50.780121%" y2="0.780121026%" id="linearGradient-1">
            <stop stop-color="#A90011" offset="0%"></stop>
            <stop stop-color="#DD0016" offset="100%"></stop>
        </linearGradient>
    </defs>
    <g id="Symbols" stroke="none" stroke-width="1" fill="none" fill-rule="evenodd">
        <g id="product-card/accessories" transform="translate(-125.000000, -233.000000)">
            <g id="button/buy-small" transform="translate(125.000000, 233.000000)">
                <rect id="Rectangle" fill="url(#linearGradient-1)" x="0" y="0" width="52" height="32" rx="16"></rect>
                <g id="icon/shopping-bag-white" transform="translate(16.000000, 6.000000)" stroke="#FFFFFF" stroke-linecap="round" stroke-linejoin="round" stroke-width="1">
                    <g id="shopping-bag" transform="translate(3.000000, 2.000000)">
                        <path d="M2.33333333,0 L0,3.2 L0,14.4 C0,15.2836556 0.696445945,16 1.55555556,16 L12.4444444,16 C13.3035541,16 14,15.2836556 14,14.4 L14,3.2 L11.6666667,0 L2.33333333,0 Z" id="Shape" stroke-width="2"></path>
                        <path d="M0,3.2 L14,3.2" id="Shape" stroke-width="2"></path>
                        <path d="M10.1111111,6.4 C10.1111111,8.1673112 8.71821922,9.6 7,9.6 C5.28178078,9.6 3.88888889,8.1673112 3.88888889,6.4" id="Shape" stroke-width="2"></path>
                    </g>
                </g>
            </g>
        </g>
    </g>
</svg>